B2_Disturbance_Plot_Level
…
plot_level <- data.kde.full %>%
  drop_na() %>%
  left_join(data.peaks.full %>% select(peak, plotid, year), by = c("plotid", "year")) %>%
  mutate(peak = ifelse(peak %in% "yes", "yes", "no")) %>%
  left_join(data.sampled %>% distinct(., stand, plotid), by = "plotid")  %>%
  group_by(plotid) %>%
  filter(!year < year_min, 
         !year > year_max)

write_csv(plot_level,file="Data/plot_level.csv")

plot_level %>%
  filter(peak %in% "yes")

# A tibble: 572 × 10
# Groups:   plotid [206]
   plotid         year ca_pct year_min year_max ncores   kde type  peak  stand  
   <chr>         <dbl>  <dbl>    <dbl>    <dbl>  <dbl> <dbl> <chr> <chr> <chr>  
 1 ALB_CUR_001_1  1889   0        1869     2005      6  13.3 full  yes   ALB-CUR
 2 ALB_CUR_001_1  1926   9.79     1869     2005      6  36.1 full  yes   ALB-CUR
 3 ALB_CUR_001_2  1890   0        1882     2005      5  17.1 full  yes   ALB-CUR
 4 ALB_CUR_001_2  1927   3.47     1882     2005      5  37.6 full  yes   ALB-CUR
 5 ALB_CUR_002_1  1878  10.3      1858     2005      7  29.7 full  yes   ALB-CUR
 6 ALB_CUR_002_1  1916   0        1858     2005      7  12.7 full  yes   ALB-CUR
 7 ALB_CUR_002_1  1949   0        1858     2005      7  16.2 full  yes   ALB-CUR
 8 ALB_CUR_002_2  1952   0        1875     2005      8  29.3 full  yes   ALB-CUR
 9 ALB_CUR_003_1  1910   2.88     1902     2005      8  16.9 full  yes   ALB-CUR
10 ALB_CUR_003_1  1932   3.70     1902     2005      8  31.3 full  yes   ALB-CUR
# ℹ 562 more rows
…
